<svg width="20" height="16" viewBox="0 0 20 16" xmlns="http://www.w3.org/2000/svg">
    <path d="M17.969 4.5c0 1.846-.456 3.628-1.368 5.346-.937 1.82-2.252 3.27-3.945 4.346C10.808 15.397 8.685 16 6.29 16 3.998 16 1.9 15.397 0 14.192c.286.026.612.038.976.038a8.216 8.216 0 0 0 5.118-1.73c-.911 0-1.713-.264-2.403-.79a4.017 4.017 0 0 1-1.426-1.98c.261.026.509.039.742.039.366 0 .73-.039 1.094-.116A4.132 4.132 0 0 1 1.757 8.23C1.132 7.487.82 6.64.82 5.692v-.077a3.91 3.91 0 0 0 1.836.539 4.5 4.5 0 0 1-1.328-1.462A3.842 3.842 0 0 1 .82 2.75c0-.706.195-1.379.586-2.02a11.266 11.266 0 0 0 3.73 3 11.514 11.514 0 0 0 4.708 1.231 5.477 5.477 0 0 1-.078-.923c0-.717.182-1.39.546-2.02a3.994 3.994 0 0 1 1.486-1.48A4.001 4.001 0 0 1 13.827 0c.6 0 1.152.114 1.66.346.508.23.957.538 1.348.923.938-.18 1.81-.5 2.617-.961-.313.947-.912 1.692-1.797 2.23A8.893 8.893 0 0 0 20 1.884 8.94 8.94 0 0 1 17.93 4c.026.102.039.27.039.5"
          fill="currentColor" fill-rule="evenodd"/>
</svg>
