<svg width="8" height="13" viewBox="0 0 8 13" fill="none" xmlns="http://www.w3.org/2000/svg">
    <path fill-rule="evenodd" clip-rule="evenodd" d="M5.08586 6.50008L0.292969 1.70718L1.70718 0.292969L7.91429 6.50008L1.70718 12.7072L0.292969 11.293L5.08586 6.50008Z" fill="currentColor"/>
</svg>
