<svg width="20" height="13" viewBox="0 0 20 13" xmlns="http://www.w3.org/2000/svg">
    <path d="M20 4.28v6.657c0 .863-.84 1.563-1.875 1.563H1.875C.84 12.5 0 11.8 0 10.937V4.284c0-.162.222-.254.379-.153.875.566 2.035 1.287 6.02 3.698.823.502 2.215 1.555 3.601 1.55 1.395.01 2.813-1.069 3.605-1.55 3.985-2.411 5.141-3.134 6.016-3.7.153-.1.379-.007.379.152M7.132 6.985C1.95 3.85 1.555 3.573.36 2.795.132 2.646 0 2.423 0 2.18v-.618C0 .7.84 0 1.875 0h16.25C19.16 0 20 .699 20 1.563v.617c0 .242-.132.47-.36.616-1.195.781-1.59 1.054-6.772 4.19-.657.396-1.962 1.36-2.868 1.347-.906.013-2.211-.95-2.868-1.348"
          fill="currentColor" fill-rule="evenodd"/>
</svg>
