<svg width="126" height="29" viewBox="0 0 126 29" fill="none" xmlns="http://www.w3.org/2000/svg">
<path d="M0 0.258057H3.97677V28.2941H0V0.258057Z" fill="#921601"/>
<path d="M19.1922 17.8021H13.6593V28.2941H9.85547V0.258057H19.1922C26.1084 0.258057 29.0477 2.92406 29.0477 9.03006C29.0477 14.7921 26.1948 17.8021 19.1922 17.8021ZM19.1922 3.52606H13.6593V14.5341H19.1922C23.169 14.5341 25.071 13.3301 25.071 9.03006C25.071 4.98806 23.2555 3.52606 19.1922 3.52606Z" fill="#921601"/>
<path d="M51.1797 24.7681L51.0933 28.2081H33.1113V0.258057H50.4016L50.4881 3.78406H36.9152V12.1261H48.5862V15.3081H36.9152V24.7681H51.1797Z" fill="#921601"/>
<path d="M57.75 0.172119H58.7874V7.48212H57.75V0.172119Z" fill="#253587"/>
<path d="M65.5302 7.48187L62.0722 2.49387L61.6399 1.80587V2.57988V7.48187H60.7754V0.171875H61.6399L65.3573 5.67587V4.90188V0.171875H66.2218V7.48187H65.5302Z" fill="#253587"/>
<path d="M69.8537 7.56794C68.9892 7.56794 68.2975 7.39594 67.6924 7.05194L67.8653 6.19194C68.4705 6.53594 69.0756 6.70794 69.8537 6.70794C70.8911 6.70794 71.4098 6.27794 71.4098 5.50394C71.4098 3.86994 67.7788 4.55794 67.7788 2.14994C67.7788 1.03194 68.5569 0.0859375 70.1995 0.0859375C70.8911 0.0859375 71.5827 0.257937 72.1014 0.515938L71.9285 1.37594C71.3234 1.11794 70.8046 1.03194 70.1995 1.03194C69.0756 1.03194 68.7298 1.54794 68.7298 2.14994C68.7298 3.69794 72.3608 3.00994 72.3608 5.50394C72.3608 6.79394 71.4098 7.56794 69.8537 7.56794Z" fill="#253587"/>
<path d="M76.0776 1.11812V7.48212H75.0402V1.11812H72.8789V0.172119H78.1525V1.11812H76.0776Z" fill="#253587"/>
<path d="M79.4492 0.172119H80.4866V7.48212H79.4492V0.172119Z" fill="#253587"/>
<path d="M84.896 1.11812V7.48212H83.8586V1.11812H81.6973V0.172119H86.9708V1.11812H84.896Z" fill="#253587"/>
<path d="M93.6276 4.81612C93.6276 6.70812 92.6767 7.56812 90.8612 7.56812C89.0457 7.56812 88.0947 6.70812 88.0947 4.81612V0.172119H89.0457V4.81612C89.0457 6.10612 89.6509 6.62212 90.8612 6.62212C92.0715 6.62212 92.6767 6.02012 92.6767 4.81612V0.172119H93.6276V4.81612Z" fill="#253587"/>
<path d="M97.7768 1.11788V7.48187H96.7394V1.11788H94.5781V0.171875H99.8517V1.11788H97.7768Z" fill="#253587"/>
<path d="M103.656 7.568C101.494 7.568 100.63 6.45 100.63 3.784C100.63 1.118 101.494 0 103.656 0C105.817 0 106.681 1.118 106.681 3.784C106.681 6.536 105.903 7.568 103.656 7.568ZM103.656 1.032C102.186 1.032 101.667 1.634 101.667 3.87C101.667 6.106 102.186 6.708 103.656 6.708C105.125 6.708 105.644 6.106 105.644 3.87C105.644 1.634 105.125 1.032 103.656 1.032Z" fill="#253587"/>
<path d="M59.9978 15.1359H58.5281V17.8879H57.5771V10.5779H59.9978C61.8133 10.5779 62.5913 11.2659 62.5913 12.8139C62.5913 14.3619 61.8133 15.1359 59.9978 15.1359ZM59.9978 11.4379H58.5281V14.2759H59.9978C61.0352 14.2759 61.5539 13.9319 61.5539 12.8139C61.5539 11.7819 61.1217 11.4379 59.9978 11.4379Z" fill="#253587"/>
<path d="M68.643 16.9419V17.8019H63.9746V10.4919H68.4701V11.4379H64.9256V13.5879H67.9514V14.4479H64.9256V16.9419H68.643Z" fill="#253587"/>
<path d="M73.398 14.6199L75.2999 17.8879H74.0896L72.447 14.7919H70.9773V17.8879H70.0264V10.5779H72.5335C74.0896 10.5779 74.8677 11.2659 74.8677 12.6419C74.8677 13.7599 74.3489 14.4479 73.398 14.6199ZM72.5335 11.4379H70.9773V14.0179H72.447C73.398 14.0179 73.8302 13.6739 73.8302 12.7279C73.8302 11.7819 73.398 11.4379 72.5335 11.4379Z" fill="#253587"/>
<path d="M81.8698 15.2219C81.8698 17.1139 80.9189 17.9739 79.1034 17.9739C77.2879 17.9739 76.3369 17.1139 76.3369 15.2219V10.5779H77.2879V15.2219C77.2879 16.5119 77.893 17.0279 79.1034 17.0279C80.3137 17.0279 80.9189 16.4259 80.9189 15.2219V10.5779H81.8698V15.2219Z" fill="#253587"/>
<path d="M87.7485 16.0822H84.5498L83.9446 17.8022H82.9072L85.5872 10.4922H86.7975L89.4775 17.8022H88.3537L87.7485 16.0822ZM85.933 12.0402L84.8092 15.2222H87.4892L86.4517 12.0402L86.1924 11.2662L85.933 12.0402Z" fill="#253587"/>
<path d="M95.3564 17.8879L91.8983 12.8999L91.4661 12.2119V12.9859V17.8879H90.6016V10.5779H91.4661L95.1835 16.0819V15.3079V10.5779H96.048V17.8879H95.3564Z" fill="#253587"/>
<path d="M100.63 17.9743C98.469 17.9743 97.6045 16.8562 97.6045 14.1902C97.6045 11.5242 98.469 10.4062 100.63 10.4062C102.792 10.4062 103.656 11.5242 103.656 14.1902C103.656 16.8562 102.792 17.9743 100.63 17.9743ZM100.63 11.3523C99.1606 11.3523 98.6419 11.9542 98.6419 14.1902C98.6419 16.4262 99.1606 17.0283 100.63 17.0283C102.1 17.0283 102.619 16.4262 102.619 14.1902C102.619 11.9542 102.1 11.3523 100.63 11.3523Z" fill="#253587"/>
<path d="M60.1712 28.2084H57.6641V20.8984H60.1712C62.4189 20.8984 63.2834 21.9304 63.2834 24.5104C63.2834 27.2624 62.246 28.2084 60.1712 28.2084ZM60.0847 21.9304H58.615V27.3484H60.0847C61.5544 27.3484 62.1596 26.8324 62.1596 24.5964C62.246 22.4464 61.6408 21.9304 60.0847 21.9304Z" fill="#253587"/>
<path d="M69.5073 27.3484V28.2084H64.8389V20.8984H69.2479V21.8444H65.7898V23.9944H68.8156V24.8544H65.7898V27.3484H69.5073Z" fill="#253587"/>
<path d="M78.4985 27.3484V28.2084H73.8301V20.8984H78.3256V21.8444H74.781V23.9944H77.8069V24.8544H74.781V27.3484H78.4985Z" fill="#253587"/>
<path d="M84.291 22.1024C83.9452 21.9304 83.34 21.8444 82.7348 21.8444C81.1787 21.8444 80.5735 22.5324 80.5735 24.5964C80.5735 26.8324 81.2652 27.5204 82.8213 27.5204C83.4265 27.5204 83.9452 27.3484 84.3774 27.1764L84.4639 28.0364C84.0316 28.2944 83.34 28.4664 82.6484 28.4664C80.4871 28.4664 79.5361 27.2624 79.5361 24.5964C79.5361 22.1024 80.4871 20.8984 82.7348 20.8984C83.34 20.8984 84.0316 21.0704 84.4639 21.2424L84.291 22.1024Z" fill="#253587"/>
<path d="M88.4408 28.3795C86.2796 28.3795 85.415 27.2615 85.415 24.5955C85.415 21.9295 86.2796 20.8115 88.4408 20.8115C90.6021 20.8115 91.4667 21.9295 91.4667 24.5955C91.4667 27.2615 90.6021 28.3795 88.4408 28.3795ZM88.4408 21.7575C86.9712 21.7575 86.4525 22.3595 86.4525 24.5955C86.4525 26.8315 86.9712 27.4335 88.4408 27.4335C89.9105 27.4335 90.4292 26.8315 90.4292 24.5955C90.4292 22.3595 89.8241 21.7575 88.4408 21.7575Z" fill="#253587"/>
<path d="M97.7773 28.2084L94.3192 23.2204L93.887 22.5324V23.3064V28.2084H93.0225V20.8984H93.887L97.6044 26.4024V25.6284V20.8984H98.4689V28.2084H97.7773Z" fill="#253587"/>
<path d="M103.05 28.3795C100.889 28.3795 100.024 27.2615 100.024 24.5955C100.024 21.9295 100.889 20.8115 103.05 20.8115C105.212 20.8115 106.076 21.9295 106.076 24.5955C106.076 27.2615 105.212 28.3795 103.05 28.3795ZM103.05 21.7575C101.581 21.7575 101.062 22.3595 101.062 24.5955C101.062 26.8315 101.581 27.4335 103.05 27.4335C104.52 27.4335 105.039 26.8315 105.039 24.5955C105.039 22.3595 104.433 21.7575 103.05 21.7575Z" fill="#253587"/>
<path d="M108.67 20.9844L110.745 26.1444L111.004 26.8324L111.264 26.1444L113.339 20.9844H114.462V28.2944H113.598V23.3924V22.6184L113.339 23.3924L111.35 28.2944H110.745L108.757 23.4784L108.497 22.7044V23.4784V28.2084H107.633V20.8984H108.67V20.9844Z" fill="#253587"/>
<path d="M118.526 19.3496L117.229 20.4676H116.451L117.229 19.3496H118.526ZM116.624 20.9836H117.661V28.2936H116.624V20.9836Z" fill="#253587"/>
<path d="M123.712 26.4884H120.514L119.909 28.2084H118.871L121.551 20.8984H122.761L125.441 28.2084H124.318L123.712 26.4884ZM121.897 22.4464L120.773 25.6284H123.453L122.416 22.4464L122.156 21.6724L121.897 22.4464Z" fill="#253587"/>
</svg>
