<svg width="21" height="18" viewBox="0 0 21 18" fill="none" xmlns="http://www.w3.org/2000/svg">
    <path fill-rule="evenodd" clip-rule="evenodd"
          d="M6.55343 17.345C8.14269 17.3593 9.71889 17.0572 11.1899 16.4564C12.661 15.8557 13.9974 14.9682 15.1212 13.8459C16.245 12.7235 17.1336 11.3888 17.735 9.91977C18.3365 8.45068 18.6388 6.87665 18.6243 5.28959V4.71614C19.4276 4.1054 20.1264 3.3687 20.6937 2.5347C19.9226 2.86937 19.1107 3.10084 18.279 3.2231C19.134 2.68689 19.7822 1.87753 20.1181 0.926706C19.2876 1.38854 18.3983 1.73611 17.4745 1.95995C17.0854 1.52264 16.6071 1.17352 16.0717 0.936054C15.5363 0.698585 14.9563 0.578257 14.3705 0.583151C13.2476 0.600147 12.1755 1.05315 11.3814 1.84614C10.5873 2.63913 10.1336 3.70976 10.1166 4.83109C10.0905 5.14185 10.1297 5.45463 10.2317 5.74938C8.53985 5.66785 6.88497 5.22614 5.37798 4.45386C3.87098 3.68159 2.54668 2.59658 1.49382 1.27155C1.11547 1.93637 0.917528 2.68832 0.919573 3.45299C0.934746 4.14694 1.1083 4.82827 1.42701 5.44511C1.74572 6.06196 2.20119 6.59803 2.75872 7.01253C2.06779 6.99858 1.39312 6.80061 0.804469 6.43908C0.803392 7.4224 1.14816 8.37488 1.77859 9.13025C2.40902 9.88562 3.28508 10.3959 4.25384 10.5721C3.87946 10.6729 3.49103 10.7118 3.10405 10.687C2.8308 10.7053 2.55673 10.6662 2.29958 10.5721C2.58067 11.4229 3.11805 12.1662 3.83825 12.7005C4.55846 13.2348 5.42633 13.5338 6.32321 13.5569C4.81193 14.7356 2.95229 15.3815 1.03468 15.3934C0.685808 15.4121 0.33624 15.3733 0 15.2785C1.90258 16.6582 4.20245 17.3834 6.55343 17.345Z"
          fill="currentColor"/>
</svg>
