{
    "key": "group_6372ab3cd9213",
    "title": "Componente: Contenido destacado",
    "fields": [
        {
            "key": "field_6372ababae480",
            "label": "General",
            "name": "",
            "type": "tab",
            "instructions": "",
            "required": 0,
            "conditional_logic": 0,
            "wrapper": {
                "width": "",
                "class": "",
                "id": ""
            },
            "placement": "top",
            "endpoint": 0
        },
        {
            "key": "field_6372abb8ae481",
            "label": "Título",
            "name": "title",
            "type": "text",
            "instructions": "Optional title shown above the featured items.",
            "required": 0,
            "conditional_logic": 0,
            "wrapper": {
                "width": "",
                "class": "",
                "id": ""
            },
            "default_value": "",
            "placeholder": "",
            "prepend": "",
            "append": "",
            "maxlength": ""
        },
        {
            "key": "field_637390a4f3c14",
            "label": "Diseño",
            "name": "layout",
            "type": "radio",
            "instructions": "",
            "required": 0,
            "conditional_logic": 0,
            "wrapper": {
                "width": "",
                "class": "",
                "id": ""
            },
            "choices": {
                "one": "Dos destacadas + 4 verticales",
                "two": "1 destacado + 4 verticales",
                "three": "1 destacada a la derecha + 4 con slide horizontal",
                "four": "4 destacadas + 4 verticales"
            },
            "allow_null": 0,
            "other_choice": 0,
            "default_value": "",
            "layout": "vertical",
            "return_format": "value",
            "save_other_choice": 0
        },
        {
            "key": "field_63aca0947db75",
            "label": "Color de fondo",
            "name": "background_color",
            "type": "true_false",
            "instructions": "",
            "required": 0,
            "conditional_logic": 0,
            "wrapper": {
                "width": "",
                "class": "",
                "id": ""
            },
            "message": "",
            "default_value": 0,
            "ui": 1,
            "ui_on_text": "Gris",
            "ui_off_text": "Blanco"
        },
        {
            "key": "field_63739112f3c16",
            "label": "Descripción",
            "name": "description",
            "type": "text",
            "instructions": "",
            "required": 0,
            "conditional_logic": 0,
            "wrapper": {
                "width": "",
                "class": "",
                "id": ""
            },
            "default_value": "",
            "placeholder": "",
            "prepend": "",
            "append": "",
            "maxlength": ""
        },
        {
            "key": "field_6373913cf3c17",
            "label": "Deshabilitar imágenes",
            "name": "disable_images",
            "type": "true_false",
            "instructions": "Please note that this option will remove the images on all the items within the block.",
            "required": 0,
            "conditional_logic": [
                [
                    {
                        "field": "field_637390a4f3c14",
                        "operator": "==",
                        "value": "one"
                    }
                ]
            ],
            "wrapper": {
                "width": "",
                "class": "",
                "id": ""
            },
            "message": "",
            "default_value": 0,
            "ui": 1,
            "ui_on_text": "Si",
            "ui_off_text": "No"
        },
        {
            "key": "field_6372abcaae482",
            "label": "Botón",
            "name": "button",
            "type": "link",
            "instructions": "Optional button shown below the featured items.",
            "required": 0,
            "conditional_logic": 0,
            "wrapper": {
                "width": "",
                "class": "",
                "id": ""
            },
            "return_format": "array"
        },
        {
            "key": "field_6372abeeae483",
            "label": "Selección manual",
            "name": "",
            "type": "tab",
            "instructions": "",
            "required": 0,
            "conditional_logic": 0,
            "wrapper": {
                "width": "",
                "class": "",
                "id": ""
            },
            "placement": "top",
            "endpoint": 0
        },
        {
            "key": "field_6372ac07ae484",
            "label": "Selección manual de contenido",
            "name": "manual_featured_content",
            "type": "relationship",
            "instructions": "",
            "required": 0,
            "conditional_logic": 0,
            "wrapper": {
                "width": "",
                "class": "",
                "id": ""
            },
            "post_type": "",
            "taxonomy": "",
            "filters": [
                "search"
            ],
            "elements": "",
            "min": "",
            "max": "",
            "return_format": "id"
        },
        {
            "key": "field_6372ac2cae485",
            "label": "Selección automática",
            "name": "",
            "type": "tab",
            "instructions": "",
            "required": 0,
            "conditional_logic": 0,
            "wrapper": {
                "width": "",
                "class": "",
                "id": ""
            },
            "placement": "top",
            "endpoint": 0
        },
        {
            "key": "field_6372ac37ae486",
            "label": "Selección automática de contenido",
            "name": "automatic_content_selection_enabled",
            "type": "true_false",
            "instructions": "",
            "required": 0,
            "conditional_logic": 0,
            "wrapper": {
                "width": "",
                "class": "",
                "id": ""
            },
            "message": "",
            "default_value": 0,
            "ui": 1,
            "ui_on_text": "Si",
            "ui_off_text": "No"
        },
        {
            "key": "field_6372ac58ae487",
            "label": "Tipos de contenido a mostrar",
            "name": "content_types_to_show",
            "type": "checkbox",
            "instructions": "",
            "required": 0,
            "conditional_logic": 0,
            "wrapper": {
                "width": "",
                "class": "",
                "id": ""
            },
            "choices": {
                "page": "Páginas",
                "post": "Entradas",
                "evento": "Eventos"
            },
            "allow_custom": 0,
            "default_value": [],
            "layout": "vertical",
            "toggle": 0,
            "return_format": "value",
            "save_custom": 0
        },
        {
            "key": "field_6372ac7dae488",
            "label": "Restricciones de taxonomías",
            "name": "",
            "type": "accordion",
            "instructions": "",
            "required": 0,
            "conditional_logic": 0,
            "wrapper": {
                "width": "",
                "class": "",
                "id": ""
            },
            "open": 1,
            "multi_expand": 1,
            "endpoint": 0
        },
        {
            "key": "field_6372ac92ae489",
            "label": "Categorías a mostrar",
            "name": "categories_to_show",
            "type": "taxonomy",
            "instructions": "",
            "required": 0,
            "conditional_logic": 0,
            "wrapper": {
                "width": "",
                "class": "",
                "id": ""
            },
            "taxonomy": "category",
            "field_type": "checkbox",
            "add_term": 0,
            "save_terms": 1,
            "load_terms": 0,
            "return_format": "id",
            "multiple": 0,
            "allow_null": 0
        },
        {
            "key": "field_6373922f78e9a",
            "label": "Eventos a mostrar",
            "name": "events_to_show_featured_component",
            "type": "radio",
            "instructions": "Restrinja los eventos que se muestran a un subconjunto limitado de eventos en función de las fechas. Deje todo deshabilitado para todos los eventos.",
            "required": 0,
            "conditional_logic": [
                [
                    {
                        "field": "field_6372ac58ae487",
                        "operator": "!=",
                        "value": "page"
                    },
                    {
                        "field": "field_6372ac58ae487",
                        "operator": "!=",
                        "value": "post"
                    }
                ]
            ],
            "wrapper": {
                "width": "",
                "class": "",
                "id": ""
            },
            "choices": {
                "future": "Eventos donde la fecha de inicio está en el futuro",
                "past": "Eventos cuya fecha de inicio ha pasado"
            },
            "allow_null": 1,
            "other_choice": 0,
            "default_value": "",
            "layout": "vertical",
            "return_format": "value",
            "save_other_choice": 0
        },
        {
            "key": "field_6372acb3ae48a",
            "label": "Restricciones de taxonomías",
            "name": "",
            "type": "accordion",
            "instructions": "",
            "required": 0,
            "conditional_logic": 0,
            "wrapper": {
                "width": "",
                "class": "",
                "id": ""
            },
            "open": 0,
            "multi_expand": 0,
            "endpoint": 1
        },
        {
            "key": "field_6372acccae48b",
            "label": "Número de artículos para mostrar",
            "name": "number_of_items_to_show",
            "type": "range",
            "instructions": "",
            "required": 0,
            "conditional_logic": 0,
            "wrapper": {
                "width": "",
                "class": "",
                "id": ""
            },
            "default_value": "",
            "min": "",
            "max": 20,
            "step": "",
            "prepend": "",
            "append": ""
        }
    ],
    "location": [
        [
            {
                "param": "post_type",
                "operator": "==",
                "value": "post"
            }
        ]
    ],
    "menu_order": 0,
    "position": "normal",
    "style": "default",
    "label_placement": "top",
    "instruction_placement": "label",
    "hide_on_screen": "",
    "active": false,
    "description": "",
    "show_in_rest": 0,
    "modified": 1673447320
}